%YAML 1.1
%TAG !u! tag:unity3d.com,2011:
--- !u!114 &11400000
MonoBehaviour:
  m_ObjectHideFlags: 0
  m_CorrespondingSourceObject: {fileID: 0}
  m_PrefabInstance: {fileID: 0}
  m_PrefabAsset: {fileID: 0}
  m_GameObject: {fileID: 0}
  m_Enabled: 1
  m_EditorHideFlags: 0
  m_Script: {fileID: 11500000, guid: 2a151aae416b497c9eaea8aa5ac1c555, type: 3}
  m_Name: Theme_General
  m_EditorClassIdentifier: 
  m_themeName: General
  SerializedGuid: 1b5af2b67248864d9cc3fb88771caf6a
  m_activeVariant:
    m_variantName: Default
    SerializedGuid: 0f94fc78515bbb46a142adffeadcc036
    Colors:
    - m_color: {r: 1, g: 1, b: 1, a: 1}
      SerializedGuid: fa4aecfc112da949b584ae313da38d65
    - m_color: {r: 1, g: 1, b: 1, a: 1}
      SerializedGuid: ce53fa1537f76946af200453652452a6
    - m_color: {r: 1, g: 1, b: 1, a: 1}
      SerializedGuid: 6bf3c26c6cbc1b47928bce8d82a69c29
    - m_color: {r: 1, g: 1, b: 1, a: 1}
      SerializedGuid: 4fef89268e39134a8165f6c46901c641
    - m_color: {r: 1, g: 1, b: 1, a: 1}
      SerializedGuid: b030bf0275fa4c48811fbe47fbbb8900
    - m_color: {r: 1, g: 1, b: 1, a: 1}
      SerializedGuid: 021806403bf4344c99e11fd969effa3e
    Sprites: []
    Textures: []
    Fonts: []
    FontAssets: []
  ColorLabels:
  - m_label: Primary
    SerializedGuid: fa4aecfc112da949b584ae313da38d65
  - m_label: Secondary
    SerializedGuid: ce53fa1537f76946af200453652452a6
  - m_label: Accent 1
    SerializedGuid: 6bf3c26c6cbc1b47928bce8d82a69c29
  - m_label: Accent 2
    SerializedGuid: 4fef89268e39134a8165f6c46901c641
  - m_label: Text
    SerializedGuid: b030bf0275fa4c48811fbe47fbbb8900
  - m_label: Disabled
    SerializedGuid: 021806403bf4344c99e11fd969effa3e
  SpriteLabels: []
  TextureLabels: []
  FontLabels: []
  FontAssetLabels: []
  VariantsNames:
  - Default
  Variants:
  - m_variantName: Default
    SerializedGuid: 0f94fc78515bbb46a142adffeadcc036
    Colors:
    - m_color: {r: 1, g: 1, b: 1, a: 1}
      SerializedGuid: fa4aecfc112da949b584ae313da38d65
    - m_color: {r: 1, g: 1, b: 1, a: 1}
      SerializedGuid: ce53fa1537f76946af200453652452a6
    - m_color: {r: 1, g: 1, b: 1, a: 1}
      SerializedGuid: 6bf3c26c6cbc1b47928bce8d82a69c29
    - m_color: {r: 1, g: 1, b: 1, a: 1}
      SerializedGuid: 4fef89268e39134a8165f6c46901c641
    - m_color: {r: 1, g: 1, b: 1, a: 1}
      SerializedGuid: b030bf0275fa4c48811fbe47fbbb8900
    - m_color: {r: 1, g: 1, b: 1, a: 1}
      SerializedGuid: 021806403bf4344c99e11fd969effa3e
    Sprites: []
    Textures: []
    Fonts: []
    FontAssets: []
